\relax 
\@writefile{toc}{\contentsline {title}{Dynamic Rescheduling in Energy-Aware Unrelated Parallel Machine Problems}{1}}
\@writefile{toc}{\authcount {1}}
\@writefile{toc}{\contentsline {author}{Sergio Ferrer, Giancarlo Nicol\`o, Miguel A. Salido, \unskip \ \ignorespaces  Adriana Giret and Federico Barber\unskip \ \ignorespaces  \{giani1, serfers2, msalido, agiret, fbarber\}@dsic.upv.es }{1}}
\@writefile{toc}{\contentsline {section}{\numberline {1}Introduction}{1}}
\newlabel{sec:introduction}{{1}{1}}
\citation{bruzzone2012energy,dai2013energy,plitsos2017energy}
\citation{wang2016bi}
\citation{tonelli2016assessment}
\citation{nicolo2017multi}
\citation{paolucci2015facing}
\citation{paolucci2015facing}
\citation{tonelli2016assessment,nicolo2016assessment,nicolo2017multi,nicolo2018multi}
\citation{paolucci2015facing}
\@writefile{toc}{\contentsline {section}{\numberline {2}Description of the Scheduling Problem}{2}}
\newlabel{sec:problem}{{2}{2}}
\citation{vieira2003rescheduling}
\newlabel{eq_1:multi_objective_function}{{1}{3}}
\@writefile{toc}{\contentsline {section}{\numberline {3}Definition of Incidence}{3}}
\newlabel{sec:incidence}{{3}{3}}
\@writefile{toc}{\contentsline {subsection}{\numberline {3.1}A Greedy rescheduling (GR) algorithm}{3}}
\newlabel{sec:GR}{{3.1}{3}}
\newlabel{eq_affected_jobs}{{2}{3}}
\citation{vieira2003rescheduling}
\citation{nicolo2017multi}
\@writefile{loa}{\contentsline {algocf}{\numberline {1}{\ignorespaces Rescheduling algorithm\relax }}{5}}
\providecommand*\caption@xref[2]{\@setref\relax\@undefined{#1}}
\newlabel{alg}{{1}{5}}
\@writefile{toc}{\contentsline {subsection}{\numberline {3.2}A Genetic Algorithm with GR initialization (GA+GR)}{5}}
\newlabel{sec:GAGR}{{3.2}{5}}
\citation{tonelli2013industrial}
\citation{nicolo2018multi}
\citation{nicolo2017multi}
\@writefile{toc}{\contentsline {section}{\numberline {4}Evaluation}{6}}
\newlabel{sec:evaluation}{{4}{6}}
\bibstyle{amsplain}
\bibdata{refs/references}
\newlabel{ev30}{{1a}{7}}
\newlabel{sub@ev30}{{(a)}{a}}
\newlabel{ev50}{{1b}{7}}
\newlabel{sub@ev50}{{(b)}{b}}
\newlabel{ev100}{{1c}{7}}
\newlabel{sub@ev100}{{(c)}{c}}
\newlabel{ev250}{{1d}{7}}
\newlabel{sub@ev250}{{(d)}{d}}
\@writefile{lof}{\contentsline {subfigure}{\numberline{(a)}{\ignorespaces {Fig. 4: Results on j30}}}{7}}
\@writefile{lof}{\contentsline {subfigure}{\numberline{(b)}{\ignorespaces {Fig. 5: Results on j50}}}{7}}
\@writefile{lof}{\contentsline {subfigure}{\numberline{(c)}{\ignorespaces {Fig. 6: Results on j100}}}{7}}
\@writefile{lof}{\contentsline {subfigure}{\numberline{(d)}{\ignorespaces {Fig. 7: Results on j250}}}{7}}
\@writefile{toc}{\contentsline {section}{\numberline {5}Conclusions and Future Works}{7}}
\newlabel{sec:conclusion}{{5}{7}}
\bibcite{bruzzone2012energy}{1}
\bibcite{dai2013energy}{2}
\bibcite{nicolo2018multi}{3}
\bibcite{nicolo2016assessment}{4}
\bibcite{nicolo2017multi}{5}
\bibcite{paolucci2015facing}{6}
\bibcite{plitsos2017energy}{7}
\bibcite{tonelli2016assessment}{8}
\bibcite{tonelli2013industrial}{9}
\bibcite{vieira2003rescheduling}{10}
\bibcite{wang2016bi}{11}
